17:10:57	[INFO]		192.168.1.0	 123	zgadija	  User with id = 6 logged in.
17:10:57	[INFO]		192.168.1.0	 123	zgadija	  User with id = 6 logged in.
17:10:57	[INFO]		192.168.1.0	 123	zgadija	  User with id = 6 logged in.
17:10:57	[INFO]		192.168.1.0	 123	zgadija	  User with id = 6 logged in.
17:10:57	[INFO]		192.168.1.0	 123	zgadija	  User with id = 6 logged in.
17:10:57	[INFO]		192.168.1.0	 123	zgadija	  User with id = 6 logged in.
17:10:57	[INFO]		192.168.1.0	 123	zgadija	  User with id = 6 logged in.
17:10:57	[INFO]		192.168.1.0	 123	zgadija	  User with id = 6 logged in.
17:10:57	[INFO]		192.168.1.0	 123	zgadija	  User with id = 6 logged in.
17:10:57	[INFO]		192.168.1.0	 123	zgadija	  User with id = 6 logged in.
17:10:57	[INFO]		192.168.1.0	 123	zgadija	  User with id = 6 logged in.
17:10:57	[INFO]		192.168.1.0	 123	zgadija	  User with id = 6 logged in.