
{
  "filters": [
    {
      "name": "filter1",
      "regex": "ae2!@#!1"
    },
    {
      "name": "filter2",
      "regex": "$@(*YEQ"
    }
  ],
  "fileGroups": [
    {
      "name": "folderZaServere",
      "path": "./",
      "includes": ["logs.txt","logs1.txt"],
      "excludes": ["logs.txt"],
      "filters": ["filter1"],
      "interval": 0
    }
  ],
  "files": [
    {
      "name": "logFajl",
      "path": "C:\\Users\\Filip-PC\\Desktop\\IV godina\\II semestar\\BSEP\\projekat\\bsep_sbnz\\siem-simulator\\test1.txt",
      "filters": ["filter1"],
      "interval": 2
    },
    {
      "name": "modelFajl",
      "path": "logs.txt",
      "filters": ["filter1"],
      "interval": 2
    },
    {
      "name": "modelFajl4",
      "path": "logs1.txt",
      "filters": ["filter1"],
      "interval": 1
    }
  ]
}